<?xml version="1.0" encoding="utf-8"?>
<!-- Generator: Adobe Illustrator 23.0.4, SVG Export Plug-In . SVG Version: 6.00 Build 0)  -->
<svg version="1.1" xmlns="http://www.w3.org/2000/svg" xmlns:xlink="http://www.w3.org/1999/xlink" x="0px" y="0px"
	 viewBox="0 0 30 30" style="enable-background:new 0 0 30 30;" xml:space="preserve">
<style type="text/css">
	.st0{display:none;}
	.st1{display:inline;fill:none;stroke:#1D3767;stroke-width:0.7;stroke-linejoin:round;stroke-miterlimit:10;}
	.st2{display:inline;}
	.st3{fill:#1D3767;}
	.st4{fill:none;stroke:#1D3767;stroke-width:0.7;stroke-linecap:round;stroke-linejoin:round;stroke-miterlimit:10;}
	.st5{fill:none;stroke:#1D3767;stroke-width:0.7;stroke-linejoin:round;stroke-miterlimit:10;}
	.st6{fill:none;stroke:#1D3767;stroke-width:0.7;stroke-miterlimit:10;}
	
		.st7{fill-rule:evenodd;clip-rule:evenodd;fill:none;stroke:#1D3767;stroke-width:0.7;stroke-linecap:round;stroke-linejoin:round;stroke-miterlimit:10;}
	.st8{fill:none;stroke:#1D3767;stroke-width:0.7;stroke-linecap:round;stroke-miterlimit:10;}
</style>
<g id="_x30_1" class="st0">
	<circle class="st1" cx="15" cy="15" r="11.5"/>
	<g class="st2">
		<path class="st3" d="M10.97,23.84c-0.2-0.09-0.3-0.31-0.27-0.52l0,0c0.01-0.04,0.02-0.07,0.04-0.11l0,0
			c0.11-0.24,0.39-0.35,0.63-0.24l0,0c0.2,0.09,0.3,0.31,0.27,0.52l0,0c-0.01,0.04-0.01,0.07-0.04,0.11l0,0
			c-0.09,0.21-0.3,0.31-0.51,0.28l0,0C11.05,23.88,11.01,23.86,10.97,23.84z M15.42,24.25c-0.01-0.04-0.01-0.08,0-0.12l0,0
			c0.03-0.22,0.2-0.38,0.42-0.4l0,0c0.26-0.02,0.49,0.17,0.52,0.42l0,0c0,0.04,0.01,0.09,0,0.12l0,0c-0.03,0.21-0.21,0.37-0.42,0.39
			l0,0l0,0l0,0c-0.05,0.01-0.09,0-0.12,0l0,0C15.6,24.63,15.43,24.46,15.42,24.25z M7.09,20.65L7.09,20.65L7.09,20.65
			c-0.08-0.11-0.09-0.24-0.07-0.36l0,0c0.01-0.11,0.08-0.23,0.19-0.31l0,0c0.22-0.16,0.51-0.11,0.66,0.11l0,0
			c0.08,0.11,0.11,0.23,0.09,0.35l0,0c-0.02,0.12-0.09,0.24-0.2,0.31l0,0c-0.11,0.07-0.24,0.09-0.35,0.08l0,0
			C7.28,20.82,7.17,20.75,7.09,20.65z M19.98,22.8c-0.07-0.11-0.1-0.23-0.08-0.35l0,0c0.02-0.12,0.09-0.24,0.19-0.31l0,0
			c0.22-0.16,0.51-0.11,0.67,0.1l0,0c0.08,0.11,0.1,0.24,0.08,0.36l0,0c-0.02,0.12-0.09,0.23-0.19,0.3l0,0
			c-0.11,0.08-0.23,0.11-0.35,0.09l0,0C20.17,22.98,20.05,22.91,19.98,22.8z M5.33,15.93c-0.01-0.04-0.01-0.08,0-0.12l0,0
			c0.03-0.21,0.2-0.38,0.42-0.4l0,0c0.26-0.02,0.49,0.17,0.52,0.42l0,0c0,0.05,0,0.09,0,0.13l0,0c-0.03,0.21-0.21,0.38-0.42,0.4l0,0
			c-0.04,0-0.09,0-0.12-0.01l0,0C5.51,16.32,5.35,16.16,5.33,15.93z M23.21,19.27c-0.2-0.09-0.3-0.31-0.27-0.52l0,0
			c0.01-0.04,0.02-0.07,0.04-0.11l0,0c0.11-0.24,0.4-0.35,0.63-0.24l0,0c0.21,0.09,0.31,0.31,0.27,0.52l0,0
			c-0.01,0.04-0.01,0.07-0.03,0.11l0,0c-0.09,0.21-0.3,0.31-0.52,0.28l0,0C23.29,19.3,23.25,19.29,23.21,19.27z M6.39,11.61
			c-0.2-0.09-0.31-0.3-0.27-0.52l0,0c0.01-0.04,0.02-0.07,0.04-0.11l0,0l0,0l0,0c0.11-0.24,0.39-0.35,0.63-0.24l0,0
			c0.2,0.09,0.3,0.31,0.27,0.52l0,0c-0.01,0.04-0.02,0.07-0.04,0.11l0,0c-0.09,0.21-0.3,0.32-0.51,0.28l0,0
			C6.47,11.64,6.42,11.62,6.39,11.61z M23.73,14.17L23.73,14.17c0-0.05-0.01-0.09,0-0.12l0,0c0.03-0.21,0.21-0.38,0.42-0.4l0,0
			c0.26-0.02,0.49,0.17,0.52,0.43l0,0c0,0.04,0,0.08-0.01,0.11l0,0c-0.03,0.22-0.2,0.38-0.42,0.4l0,0c-0.04,0-0.08,0.01-0.13,0l0,0
			C23.91,14.56,23.75,14.38,23.73,14.17z M9.24,7.76C9.16,7.65,9.13,7.52,9.15,7.4l0,0c0.02-0.12,0.09-0.23,0.2-0.3l0,0
			C9.56,6.94,9.86,6.99,10,7.21l0,0c0.08,0.11,0.11,0.23,0.09,0.35l0,0C10.07,7.68,10,7.8,9.9,7.87l0,0
			C9.79,7.94,9.66,7.97,9.54,7.95l0,0C9.42,7.93,9.32,7.86,9.24,7.76z M22.14,9.92c-0.01-0.01-0.02-0.02-0.02-0.03l0,0
			c-0.07-0.1-0.1-0.23-0.08-0.34l0,0c0.02-0.12,0.09-0.24,0.2-0.31l0,0c0.21-0.15,0.51-0.1,0.66,0.11l0,0
			c0.01,0.01,0.02,0.01,0.03,0.02l0,0C23,9.47,23.01,9.6,22.99,9.72l0,0c-0.02,0.12-0.08,0.23-0.19,0.31l0,0
			c-0.11,0.08-0.24,0.1-0.36,0.08l0,0C22.33,10.09,22.22,10.02,22.14,9.92z M13.62,5.84c0-0.04,0-0.08,0.01-0.11l0,0
			c0.03-0.22,0.2-0.38,0.42-0.4l0,0l0,0l0,0c0.25-0.02,0.49,0.16,0.52,0.42l0,0c0,0.04,0,0.09,0,0.12l0,0
			c-0.03,0.21-0.21,0.37-0.42,0.39l0,0c-0.05,0.01-0.09,0-0.12,0l0,0C13.81,6.23,13.64,6.07,13.62,5.84z M18.63,7.01
			c-0.21-0.09-0.31-0.3-0.27-0.51l0,0c0.01-0.04,0.01-0.08,0.03-0.12l0,0c0.11-0.24,0.38-0.34,0.63-0.23l0,0l0,0l0,0
			c0.21,0.09,0.31,0.3,0.28,0.51l0,0c-0.01,0.04-0.02,0.08-0.04,0.12l0,0c-0.09,0.2-0.3,0.31-0.52,0.27l0,0
			C18.7,7.04,18.66,7.03,18.63,7.01z"/>
	</g>
	<g class="st2">
		<line class="st4" x1="14.1" y1="8.6" x2="14.1" y2="15.6"/>
		<line class="st4" x1="19.1" y1="20.6" x2="14.1" y2="15.6"/>
	</g>
</g>
<g id="_x30_2" class="st0">
	<g class="st2">
		<path class="st4" d="M26.5,15c0,0-4,7.5-11.5,7.5S3.5,15,3.5,15s4-7.5,11.5-7.5S26.5,15,26.5,15z"/>
		<circle class="st4" cx="15" cy="15" r="4.5"/>
	</g>
</g>
<g id="_x30_3" class="st0">
	<g id="globe" class="st2">
		<circle class="st4" cx="15" cy="15" r="11.5"/>
		<path class="st4" d="M5.47,21.42c2.06-1.25,17-1.25,19.06,0"/>
		<path class="st4" d="M5.02,9.3C7,10.64,23,10.64,24.98,9.3"/>
		<ellipse class="st4" cx="15" cy="15" rx="5.5" ry="11.5"/>
		<line class="st4" x1="3.5" y1="15.5" x2="26.5" y2="15.5"/>
	</g>
</g>
<g id="_x30_4" class="st0">
	<g class="st2">
		<circle class="st4" cx="11.5" cy="16.5" r="2"/>
		<circle class="st4" cx="19.5" cy="20.5" r="2"/>
		<line class="st4" x1="25.5" y1="11.5" x2="20.46" y2="18.74"/>
		<line class="st4" x1="17.71" y1="19.61" x2="13.29" y2="17.39"/>
		<line class="st4" x1="10.25" y1="18.06" x2="3.5" y2="26.5"/>
		<line class="st4" x1="3.5" y1="3.5" x2="3.5" y2="26.5"/>
		<line class="st4" x1="26.5" y1="26.5" x2="3.5" y2="26.5"/>
		<polyline class="st4" points="21.5,12.5 25.5,11.5 26.5,15.5 		"/>
	</g>
</g>
<g id="_x30_5" class="st0">
	<g class="st2">
		<path class="st5" d="M17.5,21.5l-0.7,2.09c-0.17,0.51-0.71,0.79-1.22,0.65l-5.01-1.43c-0.57-0.16-0.87-0.78-0.65-1.33L10.5,20"/>
		<path class="st4" d="M24.21,5.79L23.5,6.5l-17,5h-2c-0.55,0-1,0.45-1,1v5c0,0.55,0.45,1,1,1h2l17,5l0.71,0.71
			c0.19,0.19,0.44,0.29,0.71,0.29h0.59c0.55,0,1-0.45,1-1v-17c0-0.55-0.45-1-1-1h-0.59C24.65,5.5,24.39,5.61,24.21,5.79z"/>
		<line class="st4" x1="6.5" y1="11.5" x2="6.5" y2="18.5"/>
	</g>
</g>
<g id="_x30_6" class="st0">
	<g class="st2">
		<circle class="st4" cx="22.5" cy="7.5" r="4"/>
		<circle class="st4" cx="7.5" cy="14.5" r="4"/>
		<circle class="st4" cx="22.5" cy="22.5" r="4"/>
		<line class="st4" x1="18.5" y1="20.5" x2="11.5" y2="16.5"/>
		<line class="st4" x1="18.5" y1="8.5" x2="11.5" y2="12.5"/>
	</g>
</g>
<g id="_x30_7" class="st0">
	<g class="st2">
		<path class="st4" d="M19,9.2c0,2.33-1.99,4.19-4.36,3.98C12.54,13,11,11.1,11,8.99V7.81c0-2.11,1.54-4.01,3.64-4.19
			C17.01,3.41,19,5.27,19,7.6V9.2z"/>
		<path class="st4" d="M17.1,16.89l-1.34,1.6c-0.4,0.48-1.13,0.48-1.53,0l-1.34-1.6c-0.56-0.67-1.49-0.92-2.29-0.57
			c-3.57,1.55-6.15,4.94-6.55,8.97c-0.06,0.59,0.4,1.11,1,1.11h19.89c0.6,0,1.06-0.52,1-1.11c-0.41-4.03-2.99-7.42-6.55-8.97
			C18.59,15.97,17.66,16.22,17.1,16.89z"/>
	</g>
</g>
<g id="_x30_8">
	<g>
		<circle class="st4" cx="12.5" cy="12.5" r="9"/>
		<path class="st4" d="M26.06,26.06L26.06,26.06c-0.59,0.59-1.54,0.59-2.12,0l-3.54-3.54c-0.59-0.59-0.59-1.54,0-2.12l0,0
			c0.59-0.59,1.54-0.59,2.12,0l3.54,3.54C26.65,24.52,26.65,25.47,26.06,26.06z"/>
		<line class="st6" x1="20.5" y1="20.5" x2="18.5" y2="18.5"/>
	</g>
</g>
<g id="_x30_9" class="st0">
	<g class="st2">
		<path class="st4" d="M16.76,13.24L16.76,13.24c-1.11-1.11-1.11-2.91,0-4.02l4.47-4.47c1.11-1.11,2.91-1.11,4.02,0l0,0
			c1.11,1.11,1.11,2.91,0,4.02l-4.47,4.47C19.67,14.35,17.87,14.35,16.76,13.24z"/>
		<path class="st4" d="M4.76,25.24L4.76,25.24c-1.11-1.11-1.11-2.91,0-4.02l4.47-4.47c1.11-1.11,2.91-1.11,4.02,0l0,0
			c1.11,1.11,1.11,2.91,0,4.02l-4.47,4.47C7.67,26.35,5.87,26.35,4.76,25.24z"/>
		<line class="st4" x1="18.74" y1="11.24" x2="11.74" y2="18.24"/>
	</g>
</g>
<g id="_x31_0" class="st0">
	<g class="st2">
		<path class="st4" d="M25.5,18.5v5c0,0.55-0.45,1-1,1h-19"/>
		<path class="st4" d="M5.5,9.5h19c0.55,0,1,0.45,1,1v4"/>
		<polyline class="st4" points="3.5,9.5 3.5,10.5 3.5,22.5 		"/>
		<path class="st4" d="M5.5,5.5c-1.1,0-2,0.9-2,2s0.9,2,2,2"/>
		<line class="st4" x1="3.5" y1="10.5" x2="3.5" y2="7.5"/>
		<path class="st4" d="M22.5,9.5v-3c0-0.55-0.45-1-1-1h-16"/>
		<path class="st4" d="M3.5,22.5c0,1.1,0.9,2,2,2"/>
		<path class="st4" d="M19.5,18.5c-1.1,0-2-0.9-2-2s0.9-2,2-2"/>
		<path class="st4" d="M19.5,18.5h6c0.55,0,1-0.45,1-1v-2c0-0.55-0.45-1-1-1h-6"/>
	</g>
</g>
<g id="_x31_1" class="st0">
	<g class="st2">
		<polyline class="st4" points="19.5,5.5 23.5,5.5 23.5,25.5 23.5,26.5 10.5,26.5 6.5,26.5 6.5,22.54 6.5,5.5 10.5,5.5 		"/>
		<path class="st7" d="M19.5,5.5v1h-9v-1c0-1.1,0.9-2,2-2h5C18.6,3.5,19.5,4.4,19.5,5.5z"/>
		<polyline class="st5" points="8.5,12.5 10.5,14.5 13.5,11.5 		"/>
		<polyline class="st5" points="8.5,18.5 10.5,20.5 13.5,17.5 		"/>
		<line class="st4" x1="16" y1="13.5" x2="21" y2="13.5"/>
		<line class="st4" x1="16" y1="19.5" x2="21" y2="19.5"/>
	</g>
</g>
<g id="_x31_2" class="st0">
	<g class="st2">
		<line class="st4" x1="24.74" y1="19" x2="24.74" y2="18.99"/>
		<path class="st4" d="M11.2,14.38c3.35-0.8,6.71-4.94,6.71-9.87c0-1.23,2.43-1.4,3.07,0.88c0.72,2.57-0.44,4.82-1.32,7.01h4.38"/>
		<path class="st4" d="M24.05,12.4c0.97,0,1.75,0.79,1.75,1.75l0,0c0,0.97-0.79,1.75-1.75,1.75h-0.44"/>
		<path class="st4" d="M23.61,15.91c0.97,0,1.75,0.79,1.75,1.75l0,0c0,0.97-0.79,1.75-1.75,1.75h-0.44"/>
		<path class="st4" d="M22.73,19.41c0.97,0,1.75,0.79,1.75,1.75l0,0c0,0.97-0.79,1.75-1.75,1.75h-0.44"/>
		<path class="st4" d="M23.61,15.91c0.97,0,1.75,0.79,1.75,1.75l0,0c0,0.97-0.79,1.75-1.75,1.75h-0.88"/>
		<path class="st4" d="M22.29,25.99h-4.82h-1.31c-1.76,0-4.96-1.61-4.96-1.61"/>
		<path class="st4" d="M21.85,22.92h0.22c0.85,0,1.53,0.69,1.53,1.53l0,0c0,0.85-0.69,1.53-1.53,1.53h-0.66"/>
		<circle class="st4" cx="9.14" cy="24.24" r="0.44"/>
		<path class="st4" d="M10.2,26.38h-5c-0.55,0-1-0.45-1-1v-12c0-0.55,0.45-1,1-1h5c0.55,0,1,0.45,1,1v12
			C11.2,25.93,10.75,26.38,10.2,26.38z"/>
	</g>
</g>
<g id="_x31_3" class="st0">
	<g class="st2">
		<circle class="st4" cx="20.71" cy="12.8" r="2.5"/>
		<circle class="st4" cx="12.71" cy="6.8" r="2.5"/>
		<path class="st4" d="M17.71,20.8c0,0,4.22-1.75,5.71-2c1.24-0.21,2.04,0.34,2.52,0.75c0.58,0.49,0.4,1.44-0.32,1.7l-11.8,4.25
			c-0.87,0.31-1.82,0.27-2.65-0.12l-6.88-3.22c-0.35-0.16-0.58-0.52-0.58-0.91v-5.41c0-0.59,0.51-1.05,1.1-1
			c1.14,0.11,2.7,0.5,4.9,1.96h0.17h4.2C16.44,16.8,17.71,18.59,17.71,20.8h-0.36H9.71"/>
	</g>
</g>
<g id="_x31_4" class="st0">
	<g class="st2">
		<path class="st4" d="M4,16.5c0,0.55,0.24,1.06,0.67,1.5c0.87,0.9,2.48,1.5,4.33,1.5s3.46-0.6,4.33-1.5
			c0.43-0.44,0.67-0.95,0.67-1.5"/>
		<path class="st4" d="M14,19.5c0,0.55-0.24,1.06-0.67,1.5"/>
		<path class="st4" d="M4.67,21C4.24,20.56,4,20.05,4,19.5"/>
		<path class="st4" d="M4,10.5c0,0.55,0.24,1.06,0.67,1.5c0.87,0.9,2.48,1.5,4.33,1.5s3.46-0.6,4.33-1.5
			c0.43-0.44,0.67-0.95,0.67-1.5"/>
		<ellipse class="st4" cx="9" cy="7.5" rx="5" ry="3"/>
		<path class="st4" d="M4,13.5c0,0.55,0.24,1.06,0.67,1.5c0.87,0.9,2.48,1.5,4.33,1.5s3.46-0.6,4.33-1.5
			c0.43-0.44,0.67-0.95,0.67-1.5"/>
		<path class="st4" d="M4,22.5c0,1.66,2.24,3,5,3s5-1.34,5-3"/>
		<path class="st4" d="M4.67,21c0.87,0.9,2.48,1.5,4.33,1.5s3.46-0.6,4.33-1.5"/>
		<polyline class="st4" points="14,22.5 14,19.5 14,16.5 14,13.5 14,10.5 14,7.5 		"/>
		<polyline class="st4" points="4,22.5 4,19.5 4,16.5 4,13.5 4,10.5 4,7.5 		"/>
		<path class="st4" d="M16,22.5c0,0.55,0.24,1.06,0.67,1.5c0.87,0.9,2.48,1.5,4.33,1.5s3.46-0.6,4.33-1.5
			c0.43-0.44,0.67-0.95,0.67-1.5"/>
		<path class="st4" d="M16,16.5c0,0.55,0.24,1.06,0.67,1.5c0.87,0.9,2.48,1.5,4.33,1.5s3.46-0.6,4.33-1.5
			c0.43-0.44,0.67-0.95,0.67-1.5"/>
		<ellipse class="st4" cx="21" cy="13.5" rx="5" ry="3"/>
		<path class="st4" d="M16,19.5c0,0.55,0.24,1.06,0.67,1.5c0.87,0.9,2.48,1.5,4.33,1.5s3.46-0.6,4.33-1.5
			c0.43-0.44,0.67-0.95,0.67-1.5"/>
		<polyline class="st4" points="26,13.5 26,16.5 26,19.5 26,22.5 		"/>
		<polyline class="st4" points="16,13.5 16,16.5 16,19.5 16,22.5 		"/>
	</g>
</g>
<g id="_x31_5" class="st0">
	<g id="chat_2_" class="st2">
		<path class="st4" d="M10.5,11.5h-5c-1.1,0-2,0.9-2,2v7c0,1.1,0.9,2,2,2h9l3,3v-8"/>
		<path class="st4" d="M24.5,15.5h-9l-3,3v-12c0-1.1,0.9-2,2-2h10c1.1,0,2,0.9,2,2v7C26.5,14.6,25.6,15.5,24.5,15.5z"/>
		<circle class="st4" cx="16.5" cy="9.5" r="0.5"/>
		<circle class="st4" cx="19.5" cy="9.5" r="0.5"/>
		<circle class="st4" cx="22.5" cy="9.5" r="0.5"/>
	</g>
</g>
<g id="_x31_6" class="st0">
	<g class="st2">
		<path class="st4" d="M5,26L5,26c-0.83,0-1.5-0.67-1.5-1.5V13h3v11.5C6.5,25.33,5.83,26,5,26z"/>
		<path class="st4" d="M6.5,24V4h20v20c0,1.1-0.9,2-2,2h-19"/>
		<rect x="9.5" y="7" class="st4" width="7" height="8"/>
		<line class="st4" x1="19.5" y1="9" x2="24.5" y2="9"/>
		<line class="st4" x1="19.5" y1="12" x2="24.5" y2="12"/>
		<line class="st4" x1="19.5" y1="15" x2="24.5" y2="15"/>
		<line class="st4" x1="10.5" y1="20" x2="24.5" y2="20"/>
		<line class="st4" x1="10.5" y1="23" x2="24.5" y2="23"/>
	</g>
</g>
<g id="_x31_7" class="st0">
	<g class="st2">
		<line class="st8" x1="14.5" y1="15.5" x2="19.5" y2="10.5"/>
		<polygon class="st4" points="26.5,6.5 22.5,10.5 19.5,10.5 19.5,7.5 23.5,3.5 23.5,6.5 		"/>
		<path class="st4" d="M25.5,15.5c0,6.08-4.92,11-11,11s-11-4.92-11-11s4.92-11,11-11"/>
		<path class="st4" d="M24.64,11.22c0.56,1.32,0.86,2.76,0.86,4.28s-0.31,2.97-0.86,4.28c-0.56,1.32-1.36,2.5-2.36,3.5
			s-2.18,1.8-3.5,2.36c-1.32,0.56-2.76,0.86-4.28,0.86s-2.97-0.31-4.28-0.86c-1.32-0.56-2.5-1.36-3.5-2.36s-1.8-2.18-2.36-3.5
			C3.81,18.47,3.5,17.02,3.5,15.5s0.31-2.97,0.86-4.28c0.56-1.32,1.36-2.5,2.36-3.5s2.18-1.8,3.5-2.36
			c1.32-0.56,2.76-0.86,4.28-0.86s2.97,0.31,4.28,0.86"/>
		<path class="st4" d="M19.57,13.36C19.85,14.02,20,14.74,20,15.5c0,0.76-0.15,1.48-0.43,2.14c-0.28,0.66-0.68,1.25-1.18,1.75
			c-0.5,0.5-1.09,0.9-1.75,1.18C15.98,20.85,15.26,21,14.5,21s-1.48-0.15-2.14-0.43c-0.66-0.28-1.25-0.68-1.75-1.18
			c-0.5-0.5-0.9-1.09-1.18-1.75C9.15,16.98,9,16.26,9,15.5c0-0.76,0.15-1.48,0.43-2.14c0.28-0.66,0.68-1.25,1.18-1.75
			c0.5-0.5,1.09-0.9,1.75-1.18C13.02,10.15,13.74,10,14.5,10s1.48,0.15,2.14,0.43"/>
	</g>
</g>
<g id="_x31_8" class="st0">
	<g class="st2">
		<g>
			<path class="st4" d="M14.09,23.5H4.5c-0.55,0-1-0.45-1-1v-15c0-0.55,0.45-1,1-1h18c0.55,0,1,0.45,1,1v5.25"/>
			<line class="st4" x1="3.5" y1="11.5" x2="23.5" y2="11.5"/>
			<line class="st4" x1="7.5" y1="4.5" x2="7.5" y2="7.5"/>
			<line class="st4" x1="19.5" y1="4.5" x2="19.5" y2="7.5"/>
		</g>
		<circle class="st4" cx="21.5" cy="20.5" r="5"/>
		<line class="st4" x1="21.5" y1="17.5" x2="21.5" y2="20.5"/>
		<line class="st4" x1="23.5" y1="22.5" x2="21.5" y2="20.5"/>
	</g>
</g>
<g id="_x31_9" class="st0">
	<g class="st2">
		<g>
			<polyline class="st4" points="7.5,17.5 11.5,12.5 16.5,16.5 22.5,7.5 			"/>
		</g>
		<g>
			<line class="st4" x1="3.5" y1="4.5" x2="26.5" y2="4.5"/>
			<path class="st4" d="M24.5,20.5h-19c-0.55,0-1-0.45-1-1v-15h21v15C25.5,20.05,25.05,20.5,24.5,20.5z"/>
			<line class="st4" x1="13.5" y1="20.5" x2="9.5" y2="25.5"/>
			<line class="st4" x1="20.5" y1="25.5" x2="16.5" y2="20.5"/>
		</g>
	</g>
</g>
</svg>
